<?xml version="1.0" encoding="UTF-8" standalone="no"?>
<!-- Created with Inkscape (http://www.inkscape.org/) -->

<svg
   xmlns:dc="http://purl.org/dc/elements/1.1/"
   xmlns:cc="http://creativecommons.org/ns#"
   xmlns:rdf="http://www.w3.org/1999/02/22-rdf-syntax-ns#"
   xmlns:svg="http://www.w3.org/2000/svg"
   xmlns="http://www.w3.org/2000/svg"
   version="1.1"
   width="744.09448"
   height="1052.3622"
   id="svg2">
  <defs
     id="defs4">
    <clipPath
       id="clipPath2999">
      <path
         d="M 0,700 700,700 700,0 0,0 0,700 z"
         id="path3001" />
    </clipPath>
  </defs>
  <metadata
     id="metadata7">
    <rdf:RDF>
      <cc:Work
         rdf:about="">
        <dc:format>image/svg+xml</dc:format>
        <dc:type
           rdf:resource="http://purl.org/dc/dcmitype/StillImage" />
        <dc:title></dc:title>
      </cc:Work>
    </rdf:RDF>
  </metadata>
  <g
     id="layer1">
    <g
       transform="matrix(1.25,0,0,-1.25,113.975,347.11235)"
       id="g3003">
      <path
         d="M 0,0 C -0.669,-0.308 -1.339,-0.616 -2.008,-0.923 -24.529,29.23 -39.618,63.536 -55.712,97.321 -56.925,48.779 -40.867298,-0.08376269 -7.7832983,-33.330763 15.200702,-9.8097627 32.971,18.182 55.246,40.979 27.553,60.536 -3.246,83.354 -38.099,99.782 c -5.148,2.428 -10.851,3.68 -16.297,5.476 8.088,-18.863 17.319,-36.032 26.528,-53.21 C -18.568,34.704 -9.288,17.35 0,0 m -66.898,-150.452 c 22.712,-17.635 41.847,-35.215 54.344,-59.209 4.78,-9.18 11.549,-17.461 18.197,-25.504 56.222,-68.037 126.792,-118.752 200.67,-165.384 1.554,-0.979 5.059,-0.169 6.974,0.956 7.822,4.602 15.7,9.215 22.974,14.608 35.959,26.666 72.515,52.61 107.347,80.686 33.492,26.995 63.513,57.831 86.733,94.466 13.472,21.26 31.37,37.733 53.159,53.016 -9.032,10.782 -18.288,21.83 -27.88,33.277 3.888,0.227 7.243,0.422 12.385,0.723 -16.311,15.987 -21.476,36.193 -29.416,55.09 -4.023,9.579 -9.105,18.888 -14.897,27.521 -40.401,60.222 -98.617,92.075 -168.63,104.608 -16.388,2.934 -26.504,13.59 -27.171,30.382 C 214.483,90.481 200.707,86.534 193.189,73.429 190.495,68.731 187.48,67.561 182.84,66.745 164.399,63.498 145.516,61.537 127.715,56.094 62.926,36.281 11.533,-0.939 -18.627,-63.25 c -8.732,-18.042 -15.761,-36.836 -31.711,-51.96 5.094,-0.381 8.584,-0.642 12.341,-0.922 -9.846,-11.691 -19.226,-22.83 -28.901,-34.32 m 478.498,136.487 0.409,-0.34 c 3.821,-5.498 7.644,-10.995 11.537,-16.593 39.66,34.655 52.572,101.875 45.2,136.705 C 426.179,90.991 391.901,63.116 356.527,39.066 373.876,21.667 390.65,4.807 407.513,-11.968 c 1.016,-1.011 2.709,-1.346 4.087,-1.997 M 81.832,42.004 c 29.853,15.422 61.647,24.604 95.091,27.92 6.264,0.621 10.589,2.458 14.885,8.232 10.284,13.834 26.137,18.751 42.542,21.621 0.27,0.048 0.685,-0.742 1.031,-1.143 -5.719,-13.917 2.257,-26.687 18.516,-30.392 16.176,-3.687 32.575,-6.846 48.264,-12.073 15.677,-5.222 30.595,-12.72 45.071,-18.891 19.382,13.371 38.555,27.469 58.615,40.162 16.033,10.143 32.717,19.508 49.908,27.502 16.4,7.628 18.907,5.244 18.984,-12.503 0.183,-42.281 -9.826,-81.245 -37.092,-114.64 -3.821,-4.678 -10.118,-9.142 -10.637,-14.182 -0.491,-4.757 5.397,-10.01 7.99,-15.284 4.014,-8.167 8.456,-16.265 11.208,-24.874 6.081,-19.003 15.066,-35.976 31.657,-50.108 -5.175,-0.262 -8.909,-0.45 -12.664,-0.639 8.413,-11.321 16.625,-22.371 24.528,-33.008 -6.225,-3.203 -11.736,-4.988 -15.941,-8.389 -15.453,-12.499 -29.599,-26.161 -40.358,-43.291 -23.523,-37.438 -54.988,-67.845 -88.211,-96.464 -40.739,-35.09 -84.421,-66.19 -129.966,-94.731 -4.419,-2.77 -7.682,-3.178 -12.289,-0.267 -61.191,38.63 -119.493,80.982 -170.618,132.523 -22.366,22.547 -41.457,47.5 -57.908,74.904 -10.725,17.864 -27.417,31.36 -46.527,43.492 8.069,10.731 16.19,21.529 24.573,32.678 -3.547,0.302 -7.047,0.597 -12.943,1.1 29.098,21.112 33.438,55.372 51.691,81.449 -38.653,36.451 -52.339,82.329 -51.31,133.817 0.25,12.551 2.569,14.766 14.471,10.047 12.393,-4.914 24.746,-10.554 35.962,-17.693 24.197,-15.395 47.657,-31.948 71.4,-48.058 1.251,-0.848 5.484,-3.38 6.953,-4.654 z"
         id="path3005"
         style="fill:#231f20;fill-opacity:1;fill-rule:evenodd;stroke:none" />
    </g>
    <g
       transform="matrix(1.25,0,0,-1.25,113.975,347.11235)"
       id="g3007">
      <path
         d="m 12.12183,-13.940105 c -0.669,-0.308 -1.339,-0.616 -2.008,-0.923 C -12.40717,15.289895 -39.618,63.536 -55.712,97.321 -56.925,48.779 -41.877451,-0.2857932 -8.7934509,-33.532793 14.190549,-10.011793 39.435976,12.525146 61.710976,35.322146 34.017976,54.879146 -3.246,83.354 -38.099,99.782 c -5.148,2.428 -10.851,3.68 -16.297,5.476 8.088,-18.863 17.319,-36.032 26.528,-53.21 9.3,-17.344 30.7018305,-48.638105 39.98983,-65.988105 z M -66.898,-150.452 c 22.712,-17.635 41.847,-35.215 54.344,-59.209 4.78,-9.18 11.549,-17.461 18.197,-25.504 56.222,-68.037 126.792,-118.752 200.67,-165.384 1.554,-0.979 5.059,-0.169 6.974,0.956 7.822,4.602 15.7,9.215 22.974,14.608 35.959,26.666 72.515,52.61 107.347,80.686 33.492,26.995 63.513,57.831 86.733,94.466 13.472,21.26 31.37,37.733 53.159,53.016 -9.032,10.782 -18.288,21.83 -27.88,33.277 3.888,0.227 7.243,0.422 12.385,0.723 -16.311,15.987 -21.476,36.193 -29.416,55.09 -4.023,9.579 -9.105,18.888 -14.897,27.521 -40.401,60.222 -98.617,92.075 -168.63,104.608 -16.388,2.934 -26.504,13.59 -27.171,30.382 C 214.483,90.481 200.707,86.534 193.189,73.429 190.495,68.731 187.48,67.561 182.84,66.745 164.399,63.498 145.516,61.537 127.715,56.094 62.926,36.281 11.533,-0.939 -18.627,-63.25 c -8.732,-18.042 -15.761,-36.836 -31.711,-51.96 5.094,-0.381 8.584,-0.642 12.341,-0.922 -9.846,-11.691 -19.226,-22.83 -28.901,-34.32 z m 478.498,136.487 0.409,-0.34 c 3.821,-5.498 7.644,-10.995 11.537,-16.593 39.66,34.655 52.572,101.875 45.2,136.705 C 426.179,90.991 391.901,63.116 356.527,39.066 373.876,21.667 390.65,4.807 407.513,-11.968 c 1.016,-1.011 2.709,-1.346 4.087,-1.997 z M 81.832,42.004 c 29.853,15.422 61.647,24.604 95.091,27.92 6.264,0.621 10.589,2.458 14.885,8.232 10.284,13.834 26.137,18.751 42.542,21.621 0.27,0.048 0.685,-0.742 1.031,-1.143 -5.719,-13.917 2.257,-26.687 18.516,-30.392 16.176,-3.687 32.575,-6.846 48.264,-12.073 15.677,-5.222 30.595,-12.72 45.071,-18.891 19.382,13.371 38.555,27.469 58.615,40.162 16.033,10.143 32.717,19.508 49.908,27.502 16.4,7.628 18.907,5.244 18.984,-12.503 0.183,-42.281 -9.826,-81.245 -37.092,-114.64 -3.821,-4.678 -10.118,-9.142 -10.637,-14.182 -0.491,-4.757 5.397,-10.01 7.99,-15.284 4.014,-8.167 8.456,-16.265 11.208,-24.874 6.081,-19.003 15.066,-35.976 31.657,-50.108 -5.175,-0.262 -8.909,-0.45 -12.664,-0.639 8.413,-11.321 16.625,-22.371 24.528,-33.008 -6.225,-3.203 -11.736,-4.988 -15.941,-8.389 -15.453,-12.499 -29.599,-26.161 -40.358,-43.291 -23.523,-37.438 -54.988,-67.845 -88.211,-96.464 -40.739,-35.09 -84.421,-66.19 -129.966,-94.731 -4.419,-2.77 -7.682,-3.178 -12.289,-0.267 -61.191,38.63 -119.493,80.982 -170.618,132.523 -22.366,22.547 -41.457,47.5 -57.908,74.904 -10.725,17.864 -27.417,31.36 -46.527,43.492 8.069,10.731 16.19,21.529 24.573,32.678 -3.547,0.302 -7.047,0.597 -12.943,1.1 29.098,21.112 33.438,55.372 51.691,81.449 -38.653,36.451 -52.339,82.329 -51.31,133.817 0.25,12.551 2.569,14.766 14.471,10.047 12.393,-4.914 24.746,-10.554 35.962,-17.693 24.197,-15.395 47.657,-31.948 71.4,-48.058 1.251,-0.848 5.484,-3.38 6.953,-4.654 z"
         id="path3009"
         style="fill:none;stroke:#231f20;stroke-width:5;stroke-linecap:butt;stroke-linejoin:miter;stroke-miterlimit:10;stroke-opacity:1;stroke-dasharray:none" />
    </g>
    <g
       transform="matrix(1.25,0,0,-1.25,236.95475,467.63423)"
       id="g3011">
      <path
         d="m 0,0 c -1.919,0 -3.494,-0.039 -4.956,-0.121 -5.353,-0.298 -8.406,-1.388 -10.21,-3.643 -1.749,-2.187 -2.16,-5.366 -1.334,-10.308 2.321,-13.893 8.743,-25.58 19.087,-34.736 5.539,-4.903 12.719,-7.495 20.762,-7.495 16.48,0 31.373,10.866 34.642,25.275 0.923,4.069 -0.054,10.41 -2.931,13.004 -3.745,3.38 -8.13,5.855 -13.208,8.72 -2.19,1.236 -4.455,2.514 -6.837,3.961 l -2.7,1.64 0.435,-3.129 C 35.045,-23.318 28.098,-32.481 19.877,-39.722 7.176,-23.273 6.853,-12.724 10.324,-2.04 l 0.638,1.964 -2.065,0 c -1.701,0 -3.298,0.02 -4.824,0.04 C 2.664,-0.018 1.314,0 0,0 m 69.38,-94.505 c -0.806,3.854 -1.501,7.183 -2.429,10.464 -3.993,14.121 -10.085,18.783 -25.073,19.185 -2.565,0.069 -5.156,0.078 -7.128,0.078 l -5.746,-0.009 c -8.267,0 -17.009,0.169 -25.022,2.194 -24.74,6.249 -42.895,21.46 -52.503,43.99 -5.171,12.127 -4.533,24.536 1.75,34.044 6.238,9.441 17.169,14.855 29.992,14.855 1.502,0 3.044,-0.075 4.583,-0.223 7.845,-0.755 14.343,-2.21 19.866,-4.448 27.704,-11.227 49.542,-29.028 64.906,-52.911 13.295,-20.664 14.229,-41.651 2.778,-62.379 -1.117,-2.021 -2.498,-3.913 -4.246,-6.308 -0.354,-0.485 -0.721,-0.987 -1.102,-1.514 -0.219,1.033 -0.426,2.025 -0.626,2.982"
         id="path3013"
         style="fill:#231f20;fill-opacity:1;fill-rule:evenodd;stroke:none" />
    </g>
    <g
       transform="matrix(1.25,0,0,-1.25,266.1405,536.13823)"
       id="g3015">
      <path
         d="m 0,0 c -7.172,0 -14.238,2.224 -19.768,7.118 -10.161,8.994 -16.367,20.486 -18.601,33.861 -1.482,8.858 1.08,11.7 10.148,12.206 1.603,0.09 3.21,0.118 4.872,0.118 2.738,0 5.627,-0.076 8.898,-0.076 -5.336,-16.425 1.243,-28.332 10.769,-40.31 10.245,8.702 16.896,18.546 14.57,35.261 7.877,-4.784 14.606,-7.808 19.819,-12.512 2.422,-2.185 3.29,-7.955 2.473,-11.559 C 29.824,9.318 14.686,0 0,0 M -40.128,86.6 C -67.842,86.599 -84.623,62.287 -73.25,35.612 c 10.07,-23.613 29.002,-38.665 53.516,-44.856 8.126,-2.053 16.749,-2.239 25.39,-2.239 1.916,0 3.832,0.008 5.745,0.008 2.372,0 4.74,-0.013 7.088,-0.077 14.022,-0.377 19.817,-4.467 23.67,-18.094 1.376,-4.867 2.241,-9.878 3.753,-16.673 3.236,4.65 5.631,7.519 7.406,10.732 12.069,21.846 10.355,43.424 -2.829,63.916 -15.976,24.834 -38.32,42.433 -65.604,53.489 -6.347,2.572 -13.425,3.891 -20.286,4.552 -1.608,0.154 -3.184,0.23 -4.727,0.23 M 0,-3 c 7.976,0 15.982,2.5 22.545,7.041 7.005,4.845 11.821,11.736 13.56,19.403 0.9,3.965 0.222,11.193 -3.388,14.449 -3.869,3.491 -8.321,6.004 -13.477,8.913 -2.179,1.23 -4.433,2.502 -6.795,3.936 l -5.4,3.28 0.872,-6.257 C 10.002,32.78 4.094,24.083 -3.271,17.282 -11.829,28.615 -16.004,38.738 -11.598,52.3 l 1.276,3.927 -4.129,0 c -1.695,0 -3.285,0.021 -4.806,0.041 -1.415,0.018 -2.771,0.035 -4.092,0.035 -1.947,0 -3.548,-0.039 -5.039,-0.123 -4.107,-0.229 -8.661,-0.908 -11.298,-4.203 -2.612,-3.268 -2.25,-7.858 -1.642,-11.493 2.379,-14.241 8.964,-26.222 19.572,-35.612 C -15.938,-0.278 -8.415,-3 0,-3 m -40.127,86.6 0,0 c 1.454,0 2.947,-0.073 4.438,-0.217 7.699,-0.741 14.061,-2.162 19.447,-4.345 C 11.17,67.93 32.772,50.323 47.966,26.706 c 12.973,-20.164 13.89,-40.635 2.726,-60.842 -0.88,-1.593 -1.953,-3.133 -3.26,-4.935 -0.783,3.745 -1.471,7.003 -2.386,10.242 -4.168,14.739 -10.849,19.856 -26.476,20.276 -2.583,0.07 -5.188,0.078 -7.169,0.078 l -0.016,0 c -0.954,0 -1.909,-0.002 -2.865,-0.004 -0.955,-0.002 -1.909,-0.004 -2.864,-0.004 -8.174,0 -16.81,0.166 -24.656,2.147 -24.268,6.13 -42.073,21.042 -51.49,43.125 -4.969,11.655 -4.378,23.547 1.621,32.628 5.955,9.013 16.431,14.182 28.742,14.183"
         id="path3017"
         style="fill:#231f20;fill-opacity:1;fill-rule:nonzero;stroke:none" />
    </g>
    <g
       transform="matrix(1.25,0,0,-1.25,466.82525,470.24098)"
       id="g3019">
      <path
         d="m 0,0 c -2.056,-1.061 -3.986,-2.035 -5.825,-2.962 -3.953,-1.995 -7.367,-3.718 -10.769,-5.65 -6.096,-3.464 -8.279,-9.138 -6.487,-16.862 3.212,-13.84 19.074,-25.1 35.359,-25.1 5.891,0 11.32,1.543 15.7,4.463 13.229,8.822 21.246,22.492 23.827,40.631 0.486,3.42 -3.063,9.215 -6.125,10.001 -4.318,1.107 -8.797,1.212 -13.541,1.323 -1.903,0.045 -3.871,0.091 -5.861,0.205 L 24.167,6.17 24.751,4.138 c 4.854,-16.909 -1.645,-28.2 -9.772,-37.771 C 3.924,-23.514 0.205,-14.132 2.17,-1.564 L 2.626,1.354 0,0 z m -40.104,-95.424 c -14.147,18.646 -17.369,37.195 -9.568,55.174 17.125,39.483 47.209,63.684 89.418,71.931 2.894,0.566 5.749,0.852 8.486,0.852 11.482,0 21.055,-5.004 27.684,-14.471 8,-11.424 8.088,-24.376 0.268,-39.595 C 63.262,-46.685 34.163,-63.585 3.776,-63.586 l -0.004,0 c -2.261,0 -4.542,0.097 -6.776,0.287 -3.01,0.259 -5.545,0.432 -8.136,0.438 l -0.147,0 c -15.677,0 -22.568,-5.392 -26.339,-20.605 -0.723,-2.913 -1.301,-5.893 -1.969,-9.345 -0.162,-0.835 -0.331,-1.704 -0.509,-2.613"
         id="path3021"
         style="fill:#231f20;fill-opacity:1;fill-rule:evenodd;stroke:none" />
    </g>
    <g
       transform="matrix(1.25,0,0,-1.25,485.72062,514.9566)"
       id="g3023">
      <path
         d="m 0,0 c 9.853,11.282 15.988,23.214 11.076,40.324 6.885,-0.395 13.246,0.022 19.114,-1.484 2.335,-0.599 5.386,-5.716 5.013,-8.337 C 32.898,14.305 25.989,0.219 12.029,-9.091 7.677,-11.993 2.5,-13.302 -2.838,-13.302 c -14.716,0 -30.653,9.955 -33.898,23.939 -1.472,6.344 -0.237,11.808 5.767,15.219 4.973,2.826 10.154,5.289 16.54,8.583 C -16.83,19.075 -10.392,9.157 0,0 m 33.116,69.806 c -2.866,0 -5.802,-0.3 -8.774,-0.881 -42.696,-8.342 -73.336,-33.218 -90.506,-72.805 -8.822,-20.334 -3.567,-40.357 11.777,-59.261 1.287,6.328 2.025,10.748 3.101,15.087 3.619,14.604 9.857,19.465 24.883,19.465 l 0.144,0 c 2.672,-0.006 5.348,-0.203 8.011,-0.432 2.303,-0.196 4.604,-0.292 6.908,-0.292 30.48,0 60.414,16.926 73.741,42.867 6.975,13.573 8.994,27.766 -0.373,41.141 C 54.727,65.123 44.459,69.806 33.116,69.806 M -0.271,4.32 c -9.744,9.331 -13,18.097 -11.194,29.656 l 0.913,5.838 -5.252,-2.709 c -2.051,-1.058 -3.979,-2.03 -5.814,-2.956 -3.971,-2.003 -7.4,-3.734 -10.833,-5.685 -4.635,-2.633 -9.649,-7.982 -7.207,-18.505 1.701,-7.331 6.632,-14.084 13.883,-19.016 6.769,-4.604 15.129,-7.245 22.937,-7.245 6.189,0 11.904,1.63 16.531,4.715 13.601,9.07 21.837,23.089 24.48,41.668 0.638,4.478 -3.77,10.775 -7.237,11.665 -4.483,1.15 -9.046,1.257 -13.878,1.37 -1.891,0.045 -3.846,0.091 -5.81,0.203 L 7.025,43.562 8.192,39.497 C 12.651,23.965 7.096,13.316 -0.271,4.32 m 33.387,62.486 c 10.971,0 20.119,-4.783 26.455,-13.831 7.651,-10.926 7.703,-23.372 0.162,-38.05 -12.672,-24.666 -41.234,-41.238 -71.073,-41.238 -2.222,0 -4.46,0.094 -6.651,0.282 -2.637,0.225 -5.463,0.436 -8.262,0.442 l -0.15,0 c -16.333,0 -23.867,-5.892 -27.795,-21.742 -0.678,-2.733 -1.226,-5.506 -1.837,-8.656 -12.077,17.251 -14.562,34.352 -7.377,50.913 8.369,19.295 20.081,35.1 34.811,46.978 14.794,11.928 32.8,20.029 53.518,24.077 2.8,0.547 5.559,0.825 8.199,0.825"
         id="path3025"
         style="fill:#231f20;fill-opacity:1;fill-rule:nonzero;stroke:none" />
    </g>
    <g
       transform="matrix(1.25,0,0,-1.25,372.98375,664.29735)"
       id="g3027">
      <path
         d="m 0,0 c -1.469,0 -2.981,0.662 -4.623,2.025 -2.755,2.288 -5.525,4.559 -8.296,6.829 -5.011,4.105 -10.192,8.35 -15.179,12.63 -0.477,0.411 -0.896,1.265 -1.298,2.157 0.832,0.419 1.649,0.795 2.235,0.808 3.92,0.091 8.091,0.132 13.524,0.132 2.424,0 4.847,-0.008 7.27,-0.016 2.429,-0.007 4.857,-0.015 7.286,-0.015 2.315,0 4.632,0.009 6.948,0.018 2.311,0.009 4.62,0.018 6.93,0.018 5.048,0 8.929,-0.045 12.582,-0.145 0.528,-0.014 1.367,-0.462 2.161,-0.916 C 29.241,22.846 28.933,22.22 28.61,21.945 22.664,16.87 16.513,11.817 10.564,6.932 8.549,5.275 6.532,3.619 4.52,1.959 2.922,0.641 1.444,0 0,0"
         id="path3029"
         style="fill:#231f20;fill-opacity:1;fill-rule:evenodd;stroke:none" />
    </g>
    <g
       transform="matrix(1.25,0,0,-1.25,391.48113,630.43998)"
       id="g3031">
      <path
         d="m 0,0 c -4.626,0 -9.254,-0.036 -13.879,-0.036 -4.852,0 -9.704,0.031 -14.556,0.031 -4.527,0 -9.056,-0.027 -13.582,-0.133 -1.846,-0.043 -3.663,-1.39 -5.493,-2.136 0.974,-1.766 1.553,-3.993 2.987,-5.225 7.721,-6.627 15.676,-12.982 23.505,-19.485 2.085,-1.732 4.153,-2.602 6.22,-2.602 2.031,0 4.063,0.84 6.11,2.53 8.06,6.649 16.176,13.231 24.122,20.012 1.245,1.061 1.716,3.025 2.547,4.571 -1.777,0.814 -3.534,2.277 -5.332,2.327 C 8.435,-0.03 4.218,0 0,0 m 0,-5 c 3.895,0 7.089,-0.026 10.018,-0.085 -5.247,-4.438 -10.622,-8.853 -15.838,-13.139 -2.018,-1.656 -4.035,-3.313 -6.05,-4.975 -1.115,-0.921 -2.1,-1.387 -2.928,-1.387 -0.85,0 -1.868,0.487 -3.025,1.448 -2.764,2.295 -5.583,4.606 -8.31,6.84 -4.458,3.652 -9.052,7.416 -13.512,11.208 3.266,0.059 6.825,0.085 11.215,0.085 2.42,0 4.84,-0.008 7.26,-0.016 2.43,-0.007 4.86,-0.015 7.291,-0.015 2.319,0 4.639,0.009 6.958,0.018 C -4.613,-5.009 -2.307,-5 0,-5"
         id="path3033"
         style="fill:#231f20;fill-opacity:1;fill-rule:nonzero;stroke:none" />
    </g>
    <g
       transform="matrix(1.25,0,0,-1.25,110.96225,560.1336)"
       id="g3035">
      <path
         d="M 0,0 C 63.131,-69.961 122.42142,-145.37682 186.63042,-216.53082 174.19242,-211.37982 8.536,-18.652 0,0"
         id="path3037"
         style="fill:#231f20;fill-opacity:1;fill-rule:evenodd;stroke:none" />
    </g>
    <g
       transform="matrix(1.25,0,0,-1.25,108.10511,560.84789)"
       id="g3039">
      <path
         d="M 0,0 C 63.131,-69.961 124.44173,-144.16464 188.65073,-215.31864 176.21273,-210.16764 8.536,-18.652 0,0 z"
         id="path3041"
         style="fill:none;stroke:#231f20;stroke-width:5;stroke-linecap:butt;stroke-linejoin:miter;stroke-miterlimit:10;stroke-opacity:1;stroke-dasharray:none" />
    </g>
    <g
       transform="matrix(1.25,0,0,-1.25,353.01487,731.82298)"
       id="g3051">
      <path
         d="M 0,0 C 4.659,1.602 10.742,2.563 17.083,2.563 23.397,2.563 29.047,1.649 33.422,0 L 0,0 z"
         id="path3053"
         style="fill:#231f20;fill-opacity:1;fill-rule:evenodd;stroke:none" />
    </g>
    <g
       transform="matrix(1.25,0,0,-1.25,374.36925,725.49373)"
       id="g3055">
      <path
         d="m 0,0 c -10.948,0 -21.894,-2.772 -26.216,-7.563 l 51.235,0 C 20.069,-2.327 10.033,0 0,0"
         id="path3057"
         style="fill:#231f20;fill-opacity:1;fill-rule:nonzero;stroke:none" />
    </g>
    <g
       transform="matrix(1.25,0,0,-1.25,628.4745,364.56898)"
       id="g3059">
      <path
         d="m 0,0 c 6.471,12.571 12.812,25.211 19.437,37.7 11.283,21.263 22.745,42.433 34.306,63.968 0.534,-0.905 1.006,-1.363 0.912,-1.592 C 41.135,67.075 26.036,34.882 5.704,5.409 4.24,3.286 2.188,1.566 0.409,-0.34 L 0,0 z"
         id="path3061"
         style="fill:#231f20;fill-opacity:1;fill-rule:evenodd;stroke:none" />
    </g>
    <g
       transform="matrix(1.25,0,0,-1.25,628.4745,364.56898)"
       id="g3063">
      <path
         d="m 0,0 c 6.471,12.571 12.812,25.211 19.437,37.7 11.283,21.263 29.614037,51.928434 41.175037,73.46343 0.534,-0.905 1.006,-1.363 0.912,-1.592 C 48.004037,76.570434 26.036,34.882 5.704,5.409 4.24,3.286 2.188,1.566 0.409,-0.34 z"
         id="path3065"
         style="fill:none;stroke:#231f20;stroke-width:5;stroke-linecap:butt;stroke-linejoin:miter;stroke-miterlimit:10;stroke-opacity:1;stroke-dasharray:none" />
    </g>
    <g
       transform="matrix(-1.25,0,0,-1.25,641.79706,562.3406)"
       id="g3039-6">
      <path
         d="M 0,0 C 63.131,-69.961 123.02751,-144.36667 187.23651,-215.52067 174.79851,-210.36967 8.536,-18.652 0,0 z"
         id="path3041-2"
         style="fill:none;stroke:#231f20;stroke-width:5;stroke-linecap:butt;stroke-linejoin:miter;stroke-miterlimit:10;stroke-opacity:1;stroke-dasharray:none" />
    </g>
  </g>
</svg>
