<?xml version="1.0" encoding="UTF-8"?>
<svg width="266.66666666666663" height="333.3333333333333" xmlns="http://www.w3.org/2000/svg">
 <title>empty flask</title>

 <g>
  <title>Layer 1</title>
  <g externalResourcesRequired="false" id="layer1">
   <g id="g2651">
    <path fill="#d7e9fc" fill-rule="evenodd" stroke="#9fabb9" stroke-width="2.5" stroke-linecap="round" stroke-linejoin="round" stroke-miterlimit="4" id="path29274" d="m86.03125,19.828156l10.625,10.625c0,25.984253 0,40.735291 0,67.3125c0,26.577209 -48.434048,89.774353 -70.874996,134.65625c-7.086611,14.173218 -7.067419,31.889282 3.5625,46.0625c7.086609,10.629883 19.461449,14.1875 31.875,14.1875c42.519695,0 85.042828,0 127.562496,0c12.413483,0 24.7883,-3.557556 31.875,-14.1875c10.629913,-14.173218 10.649094,-31.889282 3.5625,-46.0625c-20.078796,-44.881897 -43.702454,-89.774353 -63.78125,-134.65625c0,-25.984253 0,-41.328247 0,-67.3125l10.28125,-10.28125l0.34375,-0.34375l-85.03125,0z"/>
    <path fill="#ffffff" fill-rule="evenodd" stroke-width="1px" id="path6038" d="m147.9375,30.159088c0,22.916656 0,45.833313 0,68.75c22.553787,47.695862 45.21669,95.360474 67.703796,143.074829c6.291168,14.894958 -1.555878,32.255554 -15.164688,39.888062c-12.133392,8.143921 -27.078262,4.994507 -40.741562,5.556885c-9.667953,0 -19.335922,0 -29.003891,0c17.308807,-2.228516 34.970642,-2.648865 52.047531,-6.091553c11.215897,-3.501282 24.841721,-9.741882 25.52684,-23.289795c0.705139,-14.46167 -8.366333,-26.698669 -13.192001,-39.768555c-17.391998,-39.789978 -34.784012,-79.579895 -52.176025,-119.369873c0,-22.916687 0,-45.833344 0,-68.75l9.037354,-9.085266l5.031921,0l-9.069275,9.085266z"/>
    <path fill="#000000" fill-opacity="0.176245" fill-rule="evenodd" stroke-width="1px" id="path1613" d="m102.613541,30.159088c0,22.916656 0,45.833313 0,68.75c-22.55378,47.695862 -49.688927,91.035583 -72.176037,138.75c-6.291161,14.894958 -1.25,35 11.25,43.75c12.5,6.25 8.75,5 22.878475,6.638428c9.667969,0 45.585938,-0.618652 55.253906,-0.618652c-17.308815,-2.228516 -34.970642,-2.648865 -52.047546,-6.091553c-11.215893,-3.501282 -24.841705,-9.741882 -25.526836,-23.289795c-0.705139,-14.46167 8.366333,-26.698669 13.192001,-39.768555c17.392002,-39.789978 34.784016,-79.579895 52.176037,-119.369873c0,-22.916687 0,-45.833344 0,-68.75l-9.037369,-9.085266l-5.031921,0l9.06929,9.085266z"/>
   </g>
  </g>
 </g>
</svg>